name,age,team,game,pa,ab,run,hit,2b,3b,hr,rbi,sb,cs,bb,so,ba,obp,ops,dp,hbp,sh,sf,ibb
Nori Aoki,28,YKU,143,667,583,92,209,44,1,14,63,19,4,63,61,.358,,.944,10,18,0,3,7
Keiichi Hirano,31,HAN,139,593,492,77,172,22,5,1,24,6,7,34,55,.350,,.820,2,7,59,1,0
Matt Murton,28,HAN,144,668,613,105,214,35,3,17,91,11,6,47,70,.349,,.894,14,3,0,5,3
Kazuhiro Wada,38,CNI,144,602,505,94,171,29,2,37,93,5,0,92,77,.339,,1.061,12,0,0,5,7
Masahiko Morino,31,CNI,144,626,547,85,179,45,2,22,84,2,3,64,77,.327,,.937,16,6,2,7,4
Takuro Ishii,39,HIR,74,165,148,15,47,5,1,0,20,1,1,11,20,.318,,.734,2,1,5,0,0
Brett Harper,28,YKO,64,261,225,27,71,6,0,19,56,0,0,28,58,.316,,.990,7,4,0,4,0
Seiichi Uchikawa,27,YKO,144,637,577,75,182,36,4,9,66,1,2,47,51,.315,,.809,17,6,3,4,1
Takahiro Arai,33,HAN,144,641,570,96,177,42,0,19,112,7,2,52,89,.311,,.859,19,11,0,8,1
Jun Hirose,31,HIR,134,546,482,65,149,32,3,12,57,3,1,36,66,.309,,.836,9,16,8,4,3
Josh Whitesell,28,YKU,68,268,230,44,71,16,2,15,53,0,0,32,71,.309,,.991,4,4,0,2,0
Kazuya Fujita,27,YKO,106,220,201,21,62,8,0,1,15,2,2,6,33,.308,,.698,2,2,11,0,0
Michihiro Ogasawara,36,YOM,137,591,510,83,157,24,1,34,90,1,0,73,101,.308,,.953,9,3,0,5,2
Eishin Soyogi,29,HIR,143,659,562,82,172,34,3,13,56,43,14,53,80,.306,,.814,4,4,36,4,0
Alex Ramirez,35,YOM,144,606,566,93,172,28,0,49,129,1,2,21,98,.304,,.951,14,12,0,7,1
Kenji Johjima,34,HAN,144,602,554,76,168,29,0,28,91,9,5,27,53,.303,,.859,22,16,2,3,0
Takashi Toritani,29,HAN,144,651,575,98,173,31,6,19,104,13,3,66,93,.301,,.848,14,3,2,5,1
Kazuhiro Hatakeyama,27,YKU,92,280,243,38,73,17,1,14,57,0,0,28,38,.300,,.931,7,5,1,3,1
Hiroyasu Tanaka,28,YKU,140,637,516,64,155,16,2,4,54,4,4,67,48,.300,,.748,15,6,45,3,3
Shingo Kawabata,22,YKU,58,214,188,22,56,12,1,1,21,0,0,16,21,.298,,.739,7,1,6,3,3
Ryo Asai,30,HAN,85,166,148,19,44,8,0,3,14,4,3,11,42,.297,,.764,1,2,4,1,3
Craig Brazell,30,HAN,143,601,564,82,167,15,0,47,117,1,0,25,153,.296,,.902,14,6,0,6,0
Kenta Kurihara,28,HIR,104,450,386,62,114,22,0,15,65,3,3,51,70,.295,,.851,10,7,0,6,2
Masahiro Araki,32,CNI,136,625,579,65,170,29,5,3,39,20,8,38,73,.294,,.715,8,2,5,1,1
Takehiro Ishikawa,23,YKO,131,584,521,69,153,23,6,0,18,36,13,21,91,.294,,.685,6,3,38,1,1
Ryoji Aikawa,33,YKU,119,474,427,44,125,17,2,11,65,2,0,30,70,.293,,.759,8,4,6,7,4
Hisayoshi Chono,25,YOM,128,459,430,66,124,24,3,19,52,12,4,25,72,.288,,.821,10,2,2,0,4
Tetsuya Matsumoto,25,YOM,94,350,317,49,91,13,2,0,22,17,4,17,56,.287,,.672,4,4,12,0,0
Tatsuya Shimozono,25,YKO,131,461,402,41,115,21,3,3,28,1,1,49,82,.286,,.740,8,2,6,2,2
Masato Akamatsu,27,HIR,112,320,291,41,83,12,3,4,33,20,4,8,48,.285,,.696,4,3,14,4,0
Shinnosuke Abe,31,YOM,140,569,498,85,140,27,2,44,92,0,0,58,91,.281,,.976,8,11,1,1,3
Hayato Sakamoto,21,YOM,144,676,609,107,171,35,4,31,85,14,4,47,83,.281,,.836,6,3,10,7,2
Shinya Miyamoto,39,YKU,128,517,468,42,129,22,2,4,39,2,2,27,31,.276,,.675,10,3,18,1,2
Jose Castillo,29,YKO,131,496,466,48,127,24,0,19,55,3,3,22,71,.273,,.755,16,4,1,3,4
Ryota Wakiya,28,YOM,132,459,414,65,113,14,8,7,43,28,5,35,80,.273,,.729,5,3,6,1,4
Yasushi Iihara,27,YKU,129,492,430,62,116,20,3,15,48,8,8,36,74,.270,,.786,10,19,5,2,0
Yoshinobu Takahashi,35,YOM,116,332,280,30,75,9,0,13,56,2,0,44,75,.268,,.804,6,2,0,6,1
Akihiro Higashide,29,HIR,108,492,454,53,121,15,7,1,40,10,7,26,55,.267,,.644,4,1,10,1,0
Tony Blanco,28,CNI,134,561,493,71,130,21,0,32,86,0,0,57,158,.264,,.850,13,9,0,2,3
Naomichi Donoue,21,CNI,82,301,259,23,68,12,1,5,30,0,0,25,35,.263,,.706,11,2,14,1,4
Edgar Gonzalez,32,YOM,100,327,289,26,76,18,1,12,44,2,2,34,67,.263,,.798,7,1,2,1,3
Yoshiyuki Ishihara,30,HIR,121,408,369,33,97,19,0,8,41,4,4,29,81,.263,,.700,10,3,6,1,5
Shigenobu Shima,34,HIR,122,377,343,48,90,21,0,14,46,0,2,25,53,.262,,.767,7,6,0,3,0
Hirokazu Ibata,35,CNI,53,212,180,18,47,6,0,0,16,0,0,21,28,.261,,.639,13,3,6,2,1
Takahiro Iwamoto,24,HIR,60,220,212,29,55,7,1,14,36,0,2,6,57,.259,,.779,4,0,1,1,0
Yohei Oshima,24,CNI,104,374,314,35,81,10,4,0,17,8,4,29,52,.258,,.638,2,2,27,2,0
Shuichi Murata,29,YKO,144,617,565,75,145,30,0,26,88,0,0,45,124,.257,,.762,19,4,0,3,3
Shunsuke Fujikawa,22,HAN,124,183,161,32,41,12,2,1,10,5,1,9,32,.255,,.667,2,0,13,0,3
Kodai Sakurai,26,HAN,89,272,243,22,62,7,1,9,30,1,0,23,50,.255,,.730,5,4,0,2,0
Terrmel Sledge,33,YKO,129,533,469,57,118,27,0,28,78,0,0,60,136,.252,,.830,10,4,0,0,0
Kazuki Fukuchi,34,YKU,97,225,203,39,50,7,2,1,11,23,4,10,46,.246,,.623,2,8,4,0,0
Soichiro Amaya,26,HIR,123,382,335,46,82,11,2,6,35,18,10,37,72,.245,,.671,3,6,1,3,0
Jamie D'Antona,28,YKU,98,333,294,33,72,17,0,15,50,0,0,32,99,.245,,.771,9,1,0,6,0
Motonobu Tanishige,39,CNI,110,367,308,23,75,15,0,7,32,0,1,42,81,.244,,.703,5,5,11,1,4
Tomoaki Kanemoto,42,HAN,144,396,353,39,85,12,0,16,45,1,1,39,90,.241,,.731,3,3,0,1,0
Yoshitomo Tani,37,YOM,84,195,176,16,42,6,0,2,10,2,3,13,32,.239,,.600,4,1,4,1,1
Atsushi Fujii,29,CNI,63,184,166,17,39,6,3,1,8,3,1,7,38,.235,,.594,1,1,9,1,0
Atsushi Fujimoto,32,YKU,65,209,187,20,43,9,1,2,18,1,0,11,27,.230,,.597,2,2,6,3,0
Justin Huber,27,HIR,80,209,177,20,39,7,0,7,17,0,0,25,42,.220,,.718,6,7,0,0,0
Kei Nomoto,25,CNI,118,277,238,17,52,7,2,4,27,0,1,26,53,.218,,.610,3,1,9,3,2
Dionys Cesar,33,CNI,51,194,186,16,40,7,0,1,10,2,4,7,45,.215,,.512,8,0,1,0,0
Tetsuya Kokubo,25,HIR,80,244,208,17,43,7,0,1,24,0,0,21,31,.207,,.545,9,5,6,4,0
Aaron Guiel,37,YKU,81,309,251,33,50,7,0,16,41,0,3,42,70,.199,,.768,3,16,0,0,1
Shingo Takeyama,26,YKO,95,296,257,15,48,8,2,1,22,0,0,20,56,.187,,.492,5,1,16,2,8
Yoshiyuki Kamei,27,YOM,71,220,205,22,38,13,0,5,17,4,2,9,38,.185,,.550,4,3,1,2,0
