name,age,team,game,pa,ab,run,hit,2b,3b,hr,rbi,sb,cs,bb,so,ba,obp,ops,dp,hbp,sh,sf,ibb
Shinnosuke Abe,33,YOM,138,555,467,72,159,22,1,27,104,0,0,69,47,.340,,.994,11,9,2,8,6
Hayato Sakamoto,23,YOM,144,619,557,87,173,35,2,14,69,16,1,39,90,.311,,.815,5,6,12,5,1
Yohei Oshima,26,CNI,144,631,555,83,172,19,5,1,13,32,17,46,80,.310,,.744,7,13,17,0,0
Hisayoshi Chono,27,YOM,144,653,574,84,173,29,2,14,60,20,7,75,100,.301,,.815,5,1,2,1,5
Lastings Milledge,27,YKU,125,546,476,73,143,23,1,21,65,9,7,57,79,.300,,.865,11,6,3,4,5
Alex Ramirez,37,YKO,137,504,476,40,143,25,0,19,76,0,0,18,60,.300,,.806,18,7,0,3,1
Shingo Kawabata,24,YKU,125,507,453,52,135,15,5,4,49,3,2,35,56,.298,,.728,7,2,13,4,0
Takehiro Ishikawa,25,YKO,80,304,263,31,75,10,1,1,14,7,6,24,49,.285,,.693,3,3,13,1,1
Kazuhiro Wada,40,CNI,144,586,508,52,145,32,2,9,63,2,0,71,72,.285,,.780,14,1,0,6,1
Hirokazu Ibata,37,CNI,140,553,489,35,139,17,0,2,35,4,4,52,58,.284,,.687,14,3,8,1,2
Takehiro Donoue,27,CNI,85,166,156,10,44,8,0,4,17,1,1,8,36,.282,,.725,4,0,1,1,2
Ryota Arai,28,HAN,110,370,322,38,90,18,0,11,32,1,0,38,73,.280,,.803,7,6,3,1,0
Norihiro Nakamura,38,YKO,126,500,442,50,121,24,1,11,61,1,1,50,72,.274,,.753,14,2,0,6,1
Hiroyasu Tanaka,30,YKU,139,593,486,48,133,16,1,2,40,1,1,54,60,.274,,.677,15,9,40,4,0
Wladimir Balentien,27,YKU,106,422,353,58,96,13,0,31,81,1,0,64,92,.272,,.958,14,3,0,2,4
Sho Aranami,26,YKO,141,550,504,53,135,16,7,1,25,24,12,23,90,.268,,.639,2,5,16,2,2
Takahiro Iwamoto,26,HIR,71,242,239,21,64,15,0,6,27,1,1,2,43,.268,,.680,5,0,1,0,0
Shinya Miyamoto,41,YKU,110,394,356,19,95,5,0,3,23,1,0,16,38,.267,,.613,9,5,16,1,2
Kazuhiro Hatakeyama,29,YKU,121,497,455,49,121,21,1,13,55,2,1,37,64,.266,,.725,13,2,1,2,0
Soichiro Amaya,28,HIR,108,397,359,44,95,21,0,6,25,12,9,32,64,.265,,.702,3,3,2,1,1
Brad Eldred,31,HIR,65,251,225,22,59,10,0,11,35,0,0,20,67,.262,,.780,3,3,0,3,1
Takashi Toritani,31,HAN,144,624,515,62,135,22,6,8,59,15,4,94,91,.262,,.748,12,2,5,8,2
Matt Murton,30,HAN,121,473,453,39,118,18,2,5,38,2,4,18,56,.260,,.632,14,1,0,1,0
Tomoaki Kanemoto,44,HAN,126,406,356,24,92,16,1,6,30,3,3,49,54,.258,,.707,2,0,0,1,0
Tetsuya Matsumoto,27,YOM,83,229,198,29,51,7,2,0,11,12,2,17,34,.258,,.626,4,0,12,2,0
Yoshitomo Tani,39,YOM,89,255,229,19,59,5,0,3,22,1,2,14,48,.258,,.618,5,0,11,1,2
Yamato Maeda,24,HAN,128,349,311,29,80,13,3,0,26,17,8,15,46,.257,,.618,3,4,19,0,0
Tsuyoshi Ueda,23,YKU,50,173,148,14,38,5,2,0,12,8,4,12,30,.257,,.630,2,0,13,0,0
Kazuki Fukuchi,36,YKU,83,216,188,18,48,13,1,0,19,12,1,16,29,.255,,.659,3,4,6,2,0
Yuhei Nakamura,22,YKU,91,249,209,19,53,5,0,1,15,1,1,28,31,.254,,.636,10,2,8,2,4
Hiroki Uemoto,25,HAN,62,224,197,22,50,13,1,1,7,13,4,19,46,.254,,.679,3,5,2,1,0
Daisuke Fujimura,22,YOM,109,279,238,30,60,7,2,0,10,14,7,15,35,.252,,.595,2,0,26,0,0
Shuichi Murata,31,YOM,144,575,516,49,130,27,0,12,58,1,3,36,85,.252,,.690,16,15,2,6,3
Masahiro Araki,34,CNI,129,569,510,50,128,21,1,3,31,12,4,19,65,.251,,.593,4,2,36,2,0
Takahiro Arai,35,HAN,122,493,460,46,115,25,0,9,52,1,3,30,85,.250,,.659,12,1,0,2,2
Masahiko Morino,33,CNI,124,494,434,45,108,23,1,6,50,1,0,49,68,.249,,.674,13,3,4,4,1
Ryosuke Morioka,27,YKU,100,282,245,19,61,8,3,1,18,1,1,11,44,.249,,.611,1,5,19,2,0
Tony Blanco,30,CNI,96,359,311,44,77,10,0,24,65,2,1,40,84,.248,,.851,5,5,0,3,2
Akihito Fujii,36,HAN,81,228,210,9,52,5,0,1,10,0,1,9,39,.248,,.571,3,2,7,0,2
Akihiro Higashide,31,HIR,91,282,247,15,61,8,0,0,6,1,2,13,22,.247,,.572,3,3,19,0,0
Yoshihiro Maru,23,HIR,106,339,283,26,70,10,4,4,22,14,6,46,59,.247,,.707,4,2,5,3,0
Ryoji Aikawa,35,YKU,72,244,220,19,54,8,0,1,28,0,0,20,33,.245,,.604,7,1,1,2,3
Keiichi Hirano,33,HAN,134,519,458,43,112,5,2,1,24,6,2,42,61,.245,,.584,4,4,15,0,2
Hichori Morimoto,31,YKO,108,229,201,20,49,5,1,3,18,0,2,20,44,.244,,.643,6,3,4,1,0
Eishin Soyogi,31,HIR,137,575,499,52,122,21,3,10,52,14,8,50,70,.244,,.670,7,1,19,6,4
Masato Akamatsu,29,HIR,76,246,207,22,50,6,0,3,15,18,2,18,33,.242,,.627,4,4,16,1,0
Shota Dobayashi,20,HIR,144,554,488,60,118,25,4,14,45,5,2,44,150,.242,,.716,8,14,5,3,2
Jun Hirose,33,HIR,102,337,294,25,71,11,1,6,33,0,0,24,55,.241,,.668,3,11,7,1,2
Takayuki Terauchi,29,YOM,103,225,191,22,46,5,1,1,5,11,2,16,43,.241,,.600,6,3,13,2,0
Yoshiyuki Ishihara,32,HIR,77,250,217,22,52,15,0,1,22,0,1,22,37,.240,,.634,7,1,9,1,5
Yoshinobu Takahashi,37,YOM,130,442,368,30,88,17,0,8,56,2,3,61,77,.239,,.707,14,8,1,4,4
Tatsuhiko Kinjo,35,YKO,129,331,294,29,70,11,0,3,18,2,1,26,37,.238,,.617,1,6,3,2,0
Nick Stavinoha,30,HIR,52,204,181,19,43,8,0,9,24,0,0,22,42,.238,,.754,4,1,0,0,1
Kensuke Uchimura,26,YKO,77,289,236,30,56,6,0,0,18,18,4,31,40,.237,,.587,4,0,21,1,0
Edgar Gonzalez,34,YOM,57,190,174,13,41,12,0,4,19,0,2,13,46,.236,,.665,6,1,1,1,0
Craig Brazell,32,HAN,98,295,275,21,64,11,0,12,43,0,0,18,72,.233,,.688,16,2,0,0,0
Ryosuke Kikuchi,22,HIR,63,234,201,21,46,5,1,2,12,4,2,6,42,.229,,.547,5,1,25,1,0
Motonobu Tanishige,41,CNI,134,458,386,15,88,14,0,5,32,0,1,52,67,.228,,.627,15,4,14,2,3
Naoto Watanabe,31,YKO,70,213,174,19,39,4,0,0,10,2,4,24,27,.224,,.598,1,10,5,0,0
Yoshitomo Tsutsugo,20,YKO,108,446,386,31,84,16,3,10,45,1,2,51,102,.218,,.661,4,2,2,5,1
Ryosuke Hirata,24,CNI,91,301,269,28,58,4,1,11,32,1,0,28,59,.216,,.651,9,1,1,2,1
Naomichi Donoue,23,CNI,116,182,167,5,35,8,0,0,11,1,0,5,34,.210,,.493,6,1,8,1,1
Takeshi Yamasaki,43,CNI,90,215,191,9,40,13,0,1,13,1,0,18,44,.209,,.582,5,4,0,2,1
John Bowker,28,YOM,69,204,184,12,36,10,1,3,10,2,0,16,54,.196,,.577,3,2,2,0,2
Kazunari Tsuruoka,35,YKO,102,229,201,9,38,8,1,1,15,0,0,19,39,.189,,.512,4,0,8,1,3
Takayuki Kajitani,23,YKO,80,252,223,17,40,5,3,2,11,5,8,21,61,.179,,.509,4,1,7,0,0
Shinji Komiyama,26,HAN,72,171,149,6,22,1,0,1,4,0,0,11,32,.148,,.391,4,2,9,0,2
